Length to Lipids conversion.V2
…
857.4908

962.5046

NA

In this case, the NAs belonging to the CECR 2008-2010 and FRTH 1980 -
1987 at age 5 are due to the ‘rel_pred’ and ‘reference size’ value being
missing at this age.

Let’s check where the NAs are

print(NA_size_at_age)

## # A tibble: 22 × 2
## # Groups:   region [21]
##    region ocean_age
##    <chr>      <dbl>
##  1 CECR           5
##  2 FRTH           5
##  3 GRAY           1
##  4 GRAY           5
##  5 GST            5
##  6 HOOD           5
##  7 JNST           5
##  8 JUAN           5
##  9 KLTR           5
## 10 LOCR           5
## # ℹ 12 more rows
…
